<?xml version="1.0" encoding="UTF-8" standalone="no"?>
<!-- ﷽ --><svg  xmlns="http://www.w3.org/2000/svg" 
		viewBox="0 0 663 116" class="vch__wrapper" no-data-text="Non" style="">
<style>/* \357\267\275 */
     svg.vch__wrapper {
	 font-family: sans-serif;
	 line-height: ;10px;
     }*{
	 scrollbar-width: thin;
	 scrollbar-color: #87ab63 hsla(0,0%,99%,.1);
	 scrollbar-width: unset;
	 scrollbar-width: revert;}</style> <!-- 364 -->
<g transform="translate(25, 15)" class="vch__year__wrapper"><!-- 33 -->
	<g transform="translate(612, 0)" class="vch__month__wrapper"><!-- non -->
	    <rect transform="translate(0, 0)"
		  width="10" height="10"
		  class="vch__day__square has-tooltip"
		  style="fill: rgb(45, 48, 59);"/>
	    <!-- si -->
	    <rect transform="translate(0, 12)"
		  width="10" height="10"
		  class="vch__day__square has-tooltip"
		  style="fill: rgb(91, 110, 82);" />
	    <rect transform="translate(0, 24)"
		  width="10" height="10"
		  class="has-tooltip"
		  style="fill: transparent;outline: thin black 1em"/>
	    <rect transform="translate(0, 34)"
		  width="10" height="10"
		  class="has-tooltip"
		  style="" fill="" stroke="" />
	    <rect transform="translate(0, 44)"
		  width="10" height="10"
		  class="has-tooltip"
		  style="" fill="" stroke="" />
	    <rect transform="translate(0, 54)"
		  width="10" height="10"
		  class="has-tooltip"
		  style="" fill="" stroke="" />
	    <rect transform="translate(0, 64)"
		  width="10" height="10"
		  class="has-tooltip"
		  style="" fill="" stroke="" />
	    <style>element,rect {
		fill: rgb(45, 48, 59);
		fill: transparent;
		stroke: blue;/*&#65021;*/
		/* stroke-opacity: 33%;*/
		stroke-dasharray: 3;}</style>
	    <!--%EF%B7%BDufdfd-->
	</g></g><!--ufdfd-->
	<g transform="translate(0, 15)"
	   class="vch__days__labels__wrapper">
	    <text x="0" y="20" class="vch__day__label">Mon</text>
	    <text x="0" y="44">Wed</text>
	    <text x="0" y="69">Fri</text>
	</g> <style>text{/*&#65021;*/
	      fill: rgb(45, 48, 59);font-size: 10px;
	      fill: transparent;fill: aquamarine;
	      /*stroke: blue;
		 stroke-opacity: 33%; 
		 stroke-dasharray: 3;*/
	      font-size: 3rem;text-shadow: 0 0 darkkhaki;
	      text-shadow: 0 0 black;}</style>
	<g transform="translate(25, 0)"
	   class="vch__months__labels__wrapper"><!--ufdfd-->
	    <text x="12" y="10" class="vch__month__label">Dec</text>
	    <text x="60" y="10" class="vch__month__label">Jan</text>
	    <text x="120" y="10" class="vch__month__label">Feb</text>
	    <text x="168" y="10" class="vch__month__label">Mar</text>
	    <text x="216" y="10" class="vch__month__label">Apr</text>
	    <text x="264" y="10" class="vch__month__label">May</text>
	    <text x="324" y="10" class="vch__month__label">Jun</text>
	    <text x="372" y="10" class="vch__month__label">Jul</text>
	    <text x="432" y="10" class="vch__month__label">Aug</text>
	    <text x="480" y="10" class="vch__month__label">Sep</text>
	    <text x="528" y="10" class="vch__month__label">Oct</text>
	    <text x="588" y="10" class="vch__month__label">Nov</text></g>
	<!-- <metadata>
	     <rdf:RDF>
	     <cc:Work rdf:about="color mapping repos">
	     <dc:format>image/svg+xml
	     <dc:type rdf:resource="http://purl.org/dc/dcmitype/StillImage" />
	     <dc:title>ufdfd,
	     </cc:Work>
	     </rdf:RDF>
	     </metadata> --></svg>
